<?xml version="1.0" encoding="utf-8" standalone="no"?>
<!DOCTYPE svg PUBLIC "-//W3C//DTD SVG 1.1//EN"
  "http://www.w3.org/Graphics/SVG/1.1/DTD/svg11.dtd">
<!-- Created with matplotlib (http://matplotlib.org/) -->
<svg height="432pt" version="1.1" viewBox="0 0 720 432" width="720pt" xmlns="http://www.w3.org/2000/svg" xmlns:xlink="http://www.w3.org/1999/xlink">
 <defs>
  <style type="text/css">
*{stroke-linecap:butt;stroke-linejoin:round;}
  </style>
 </defs>
 <g id="figure_1">
  <g id="patch_1">
   <path d="
M0 432
L720 432
L720 0
L0 0
z
" style="fill:#ffffff;"/>
  </g>
  <g id="axes_1">
   <g id="patch_2">
    <path d="
M90 200.291
L343.636 200.291
L343.636 43.2
L90 43.2
z
" style="fill:#ffffff;"/>
   </g>
   <g id="line2d_1">
    <path clip-path="url(#p8bfee07115)" d="
M99.3939 177.871
L177.677 134.92
L334.242 49.0182" style="fill:none;stroke:#000000;stroke-dasharray:6.000000,6.000000;stroke-dashoffset:0.0;stroke-width:5.0;"/>
   </g>
   <g id="line2d_2">
    <path clip-path="url(#p8bfee07115)" d="
M99.3939 185.538
L177.677 149.533
L334.242 82.9592" style="fill:none;stroke:#28307d;stroke-linecap:square;stroke-width:5.0;"/>
    <defs>
     <path d="
M4.89859e-16 -8
L-1.79611 -2.47214
L-7.60845 -2.47214
L-2.90617 0.944272
L-4.70228 6.47214
L-5.61328e-16 3.05573
L4.70228 6.47214
L2.90617 0.944272
L7.60845 -2.47214
L1.79611 -2.47214
z
" id="mc0cffe6e67" style="stroke:#000000;stroke-linejoin:bevel;stroke-width:0.5;"/>
    </defs>
    <g clip-path="url(#p8bfee07115)">
     <use style="fill:#28307d;stroke:#000000;stroke-linejoin:bevel;stroke-width:0.5;" x="99.3939393939" xlink:href="#mc0cffe6e67" y="185.537609185"/>
     <use style="fill:#28307d;stroke:#000000;stroke-linejoin:bevel;stroke-width:0.5;" x="177.676767677" xlink:href="#mc0cffe6e67" y="149.533367462"/>
     <use style="fill:#28307d;stroke:#000000;stroke-linejoin:bevel;stroke-width:0.5;" x="334.242424242" xlink:href="#mc0cffe6e67" y="82.9592031594"/>
    </g>
   </g>
   <g id="line2d_3">
    <path clip-path="url(#p8bfee07115)" d="
M99.3939 178.949
L177.677 139.909
L334.242 72.0609" style="fill:none;stroke:#d37647;stroke-linecap:square;stroke-width:5.0;"/>
    <defs>
     <path d="
M-8 8
L8 8
L8 -8
L-8 -8
z
" id="m32daa9cacd" style="stroke:#000000;stroke-linejoin:miter;stroke-width:0.5;"/>
    </defs>
    <g clip-path="url(#p8bfee07115)">
     <use style="fill:#d37647;stroke:#000000;stroke-linejoin:miter;stroke-width:0.5;" x="99.3939393939" xlink:href="#m32daa9cacd" y="178.949002891"/>
     <use style="fill:#d37647;stroke:#000000;stroke-linejoin:miter;stroke-width:0.5;" x="177.676767677" xlink:href="#m32daa9cacd" y="139.909062975"/>
     <use style="fill:#d37647;stroke:#000000;stroke-linejoin:miter;stroke-width:0.5;" x="334.242424242" xlink:href="#m32daa9cacd" y="72.0609463883"/>
    </g>
   </g>
   <g id="line2d_4">
    <path clip-path="url(#p8bfee07115)" d="
M99.3939 178.593
L177.677 138.637
L334.242 68.4066" style="fill:none;stroke:#2f8c6e;stroke-linecap:square;stroke-width:5.0;"/>
    <defs>
     <path d="
M0 8
C2.12162 8 4.15664 7.15707 5.65685 5.65685
C7.15707 4.15664 8 2.12162 8 0
C8 -2.12162 7.15707 -4.15664 5.65685 -5.65685
C4.15664 -7.15707 2.12162 -8 0 -8
C-2.12162 -8 -4.15664 -7.15707 -5.65685 -5.65685
C-7.15707 -4.15664 -8 -2.12162 -8 0
C-8 2.12162 -7.15707 4.15664 -5.65685 5.65685
C-4.15664 7.15707 -2.12162 8 0 8
z
" id="md94c415993" style="stroke:#000000;stroke-width:0.5;"/>
    </defs>
    <g clip-path="url(#p8bfee07115)">
     <use style="fill:#2f8c6e;stroke:#000000;stroke-width:0.5;" x="99.3939393939" xlink:href="#md94c415993" y="178.593195395"/>
     <use style="fill:#2f8c6e;stroke:#000000;stroke-width:0.5;" x="177.676767677" xlink:href="#md94c415993" y="138.636757635"/>
     <use style="fill:#2f8c6e;stroke:#000000;stroke-width:0.5;" x="334.242424242" xlink:href="#md94c415993" y="68.406564687"/>
    </g>
   </g>
   <g id="line2d_5">
    <path clip-path="url(#p8bfee07115)" d="
M334.242 65.3694" style="fill:none;stroke:#d3ad47;stroke-linecap:square;stroke-width:5.0;"/>
    <defs>
     <path d="
M0 -8
L-8 8
L8 8
z
" id="md63075e83c" style="stroke:#000000;stroke-linejoin:miter;stroke-width:0.5;"/>
    </defs>
    <g clip-path="url(#p8bfee07115)">
     <use style="fill:#d3ad47;stroke:#000000;stroke-linejoin:miter;stroke-width:0.5;" x="334.242424242" xlink:href="#md63075e83c" y="65.3693931372"/>
    </g>
   </g>
   <g id="patch_3">
    <path d="
M90 43.2
L343.636 43.2" style="fill:none;stroke:#000000;stroke-linecap:square;stroke-linejoin:miter;"/>
   </g>
   <g id="patch_4">
    <path d="
M343.636 200.291
L343.636 43.2" style="fill:none;stroke:#000000;stroke-linecap:square;stroke-linejoin:miter;"/>
   </g>
   <g id="patch_5">
    <path d="
M90 200.291
L343.636 200.291" style="fill:none;stroke:#000000;stroke-linecap:square;stroke-linejoin:miter;"/>
   </g>
   <g id="patch_6">
    <path d="
M90 200.291
L90 43.2" style="fill:none;stroke:#000000;stroke-linecap:square;stroke-linejoin:miter;"/>
   </g>
   <g id="matplotlib.axis_1">
    <g id="xtick_1">
     <g id="line2d_6">
      <defs>
       <path d="
M0 0
L0 -4" id="m93b0483c22" style="stroke:#000000;stroke-width:0.5;"/>
      </defs>
      <g>
       <use style="stroke:#000000;stroke-width:0.5;" x="99.3939393939" xlink:href="#m93b0483c22" y="200.290909091"/>
      </g>
     </g>
     <g id="line2d_7">
      <defs>
       <path d="
M0 0
L0 4" id="m741efc42ff" style="stroke:#000000;stroke-width:0.5;"/>
      </defs>
      <g>
       <use style="stroke:#000000;stroke-width:0.5;" x="99.3939393939" xlink:href="#m741efc42ff" y="43.2"/>
      </g>
     </g>
    </g>
    <g id="xtick_2">
     <g id="line2d_8">
      <g>
       <use style="stroke:#000000;stroke-width:0.5;" x="177.676767677" xlink:href="#m93b0483c22" y="200.290909091"/>
      </g>
     </g>
     <g id="line2d_9">
      <g>
       <use style="stroke:#000000;stroke-width:0.5;" x="177.676767677" xlink:href="#m741efc42ff" y="43.2"/>
      </g>
     </g>
    </g>
    <g id="xtick_3">
     <g id="line2d_10">
      <g>
       <use style="stroke:#000000;stroke-width:0.5;" x="334.242424242" xlink:href="#m93b0483c22" y="200.290909091"/>
      </g>
     </g>
     <g id="line2d_11">
      <g>
       <use style="stroke:#000000;stroke-width:0.5;" x="334.242424242" xlink:href="#m741efc42ff" y="43.2"/>
      </g>
     </g>
    </g>
   </g>
   <g id="matplotlib.axis_2">
    <g id="ytick_1">
     <g id="line2d_12">
      <defs>
       <path d="
M0 0
L4 0" id="m728421d6d4" style="stroke:#000000;stroke-width:0.5;"/>
      </defs>
      <g>
       <use style="stroke:#000000;stroke-width:0.5;" x="90.0" xlink:href="#m728421d6d4" y="180.555285143"/>
      </g>
     </g>
     <g id="line2d_13">
      <defs>
       <path d="
M0 0
L-4 0" id="mcb0005524f" style="stroke:#000000;stroke-width:0.5;"/>
      </defs>
      <g>
       <use style="stroke:#000000;stroke-width:0.5;" x="343.636363636" xlink:href="#mcb0005524f" y="180.555285143"/>
      </g>
     </g>
     <g id="text_1">
      <text style="font-family:DejaVu Sans;font-size:28.0px;font-style:normal;text-anchor:end;" transform="rotate(-0.000000, 86.000000, 188.281535)" x="86.0" y="188.281535143">15</text>
     </g>
    </g>
    <g id="ytick_2">
     <g id="line2d_14">
      <g>
       <use style="stroke:#000000;stroke-width:0.5;" x="90.0" xlink:href="#m728421d6d4" y="140.288824942"/>
      </g>
     </g>
     <g id="line2d_15">
      <g>
       <use style="stroke:#000000;stroke-width:0.5;" x="343.636363636" xlink:href="#mcb0005524f" y="140.288824942"/>
      </g>
     </g>
     <g id="text_2">
      <text style="font-family:DejaVu Sans;font-size:28.0px;font-style:normal;text-anchor:end;" transform="rotate(-0.000000, 86.000000, 148.015075)" x="86.0" y="148.015074942">30</text>
     </g>
    </g>
    <g id="ytick_3">
     <g id="line2d_16">
      <g>
       <use style="stroke:#000000;stroke-width:0.5;" x="90.0" xlink:href="#m728421d6d4" y="100.02236474"/>
      </g>
     </g>
     <g id="line2d_17">
      <g>
       <use style="stroke:#000000;stroke-width:0.5;" x="343.636363636" xlink:href="#mcb0005524f" y="100.02236474"/>
      </g>
     </g>
     <g id="text_3">
      <text style="font-family:DejaVu Sans;font-size:28.0px;font-style:normal;text-anchor:end;" transform="rotate(-0.000000, 86.000000, 107.748615)" x="86.0" y="107.74861474">45</text>
     </g>
    </g>
    <g id="ytick_4">
     <g id="line2d_18">
      <g>
       <use style="stroke:#000000;stroke-width:0.5;" x="90.0" xlink:href="#m728421d6d4" y="59.7559045386"/>
      </g>
     </g>
     <g id="line2d_19">
      <g>
       <use style="stroke:#000000;stroke-width:0.5;" x="343.636363636" xlink:href="#mcb0005524f" y="59.7559045386"/>
      </g>
     </g>
     <g id="text_4">
      <text style="font-family:DejaVu Sans;font-size:28.0px;font-style:normal;text-anchor:end;" transform="rotate(-0.000000, 86.000000, 67.482155)" x="86.0" y="67.4821545386">60</text>
     </g>
    </g>
   </g>
  </g>
  <g id="axes_2">
   <g id="patch_7">
    <path d="
M394.364 200.291
L648 200.291
L648 43.2
L394.364 43.2
z
" style="fill:#ffffff;"/>
   </g>
   <g id="line2d_20">
    <path clip-path="url(#p94e1a50243)" d="
M403.758 177.871
L482.04 134.92
L638.606 49.0182" style="fill:none;stroke:#000000;stroke-dasharray:6.000000,6.000000;stroke-dashoffset:0.0;stroke-width:5.0;"/>
   </g>
   <g id="line2d_21">
    <path clip-path="url(#p94e1a50243)" d="
M403.758 185.538
L482.04 149.533
L638.606 82.9592" style="fill:none;stroke:#28307d;stroke-linecap:square;stroke-width:5.0;"/>
    <g clip-path="url(#p94e1a50243)">
     <use style="fill:#28307d;stroke:#000000;stroke-linejoin:bevel;stroke-width:0.5;" x="403.757575758" xlink:href="#mc0cffe6e67" y="185.537609185"/>
     <use style="fill:#28307d;stroke:#000000;stroke-linejoin:bevel;stroke-width:0.5;" x="482.04040404" xlink:href="#mc0cffe6e67" y="149.533367462"/>
     <use style="fill:#28307d;stroke:#000000;stroke-linejoin:bevel;stroke-width:0.5;" x="638.606060606" xlink:href="#mc0cffe6e67" y="82.9592031594"/>
    </g>
   </g>
   <g id="line2d_22">
    <path clip-path="url(#p94e1a50243)" d="
M403.758 179.333
L482.04 141.466
L638.606 74.995" style="fill:none;stroke:#d37647;stroke-linecap:square;stroke-width:5.0;"/>
    <g clip-path="url(#p94e1a50243)">
     <use style="fill:#d37647;stroke:#000000;stroke-linejoin:miter;stroke-width:0.5;" x="403.757575758" xlink:href="#m32daa9cacd" y="179.333450169"/>
     <use style="fill:#d37647;stroke:#000000;stroke-linejoin:miter;stroke-width:0.5;" x="482.04040404" xlink:href="#m32daa9cacd" y="141.46556924"/>
     <use style="fill:#d37647;stroke:#000000;stroke-linejoin:miter;stroke-width:0.5;" x="638.606060606" xlink:href="#m32daa9cacd" y="74.9949781322"/>
    </g>
   </g>
   <g id="line2d_23">
    <path clip-path="url(#p94e1a50243)" d="
M403.758 178.479
L482.04 138.399
L638.606 69.3522" style="fill:none;stroke:#2f8c6e;stroke-linecap:square;stroke-width:5.0;"/>
    <g clip-path="url(#p94e1a50243)">
     <use style="fill:#2f8c6e;stroke:#000000;stroke-width:0.5;" x="403.757575758" xlink:href="#md94c415993" y="178.479096066"/>
     <use style="fill:#2f8c6e;stroke:#000000;stroke-width:0.5;" x="482.04040404" xlink:href="#md94c415993" y="138.398784012"/>
     <use style="fill:#2f8c6e;stroke:#000000;stroke-width:0.5;" x="638.606060606" xlink:href="#md94c415993" y="69.352231755"/>
    </g>
   </g>
   <g id="line2d_24">
    <path clip-path="url(#p94e1a50243)" d="
M638.606 69.6639" style="fill:none;stroke:#d3ad47;stroke-linecap:square;stroke-width:5.0;"/>
    <g clip-path="url(#p94e1a50243)">
     <use style="fill:#d3ad47;stroke:#000000;stroke-linejoin:miter;stroke-width:0.5;" x="638.606060606" xlink:href="#md63075e83c" y="69.6639276419"/>
    </g>
   </g>
   <g id="patch_8">
    <path d="
M394.364 43.2
L648 43.2" style="fill:none;stroke:#000000;stroke-linecap:square;stroke-linejoin:miter;"/>
   </g>
   <g id="patch_9">
    <path d="
M648 200.291
L648 43.2" style="fill:none;stroke:#000000;stroke-linecap:square;stroke-linejoin:miter;"/>
   </g>
   <g id="patch_10">
    <path d="
M394.364 200.291
L648 200.291" style="fill:none;stroke:#000000;stroke-linecap:square;stroke-linejoin:miter;"/>
   </g>
   <g id="patch_11">
    <path d="
M394.364 200.291
L394.364 43.2" style="fill:none;stroke:#000000;stroke-linecap:square;stroke-linejoin:miter;"/>
   </g>
   <g id="matplotlib.axis_3">
    <g id="xtick_4">
     <g id="line2d_25">
      <g>
       <use style="stroke:#000000;stroke-width:0.5;" x="403.757575758" xlink:href="#m93b0483c22" y="200.290909091"/>
      </g>
     </g>
     <g id="line2d_26">
      <g>
       <use style="stroke:#000000;stroke-width:0.5;" x="403.757575758" xlink:href="#m741efc42ff" y="43.2"/>
      </g>
     </g>
    </g>
    <g id="xtick_5">
     <g id="line2d_27">
      <g>
       <use style="stroke:#000000;stroke-width:0.5;" x="482.04040404" xlink:href="#m93b0483c22" y="200.290909091"/>
      </g>
     </g>
     <g id="line2d_28">
      <g>
       <use style="stroke:#000000;stroke-width:0.5;" x="482.04040404" xlink:href="#m741efc42ff" y="43.2"/>
      </g>
     </g>
    </g>
    <g id="xtick_6">
     <g id="line2d_29">
      <g>
       <use style="stroke:#000000;stroke-width:0.5;" x="638.606060606" xlink:href="#m93b0483c22" y="200.290909091"/>
      </g>
     </g>
     <g id="line2d_30">
      <g>
       <use style="stroke:#000000;stroke-width:0.5;" x="638.606060606" xlink:href="#m741efc42ff" y="43.2"/>
      </g>
     </g>
    </g>
   </g>
   <g id="matplotlib.axis_4">
    <g id="ytick_5">
     <g id="line2d_31">
      <g>
       <use style="stroke:#000000;stroke-width:0.5;" x="394.363636364" xlink:href="#m728421d6d4" y="180.555285143"/>
      </g>
     </g>
     <g id="line2d_32">
      <g>
       <use style="stroke:#000000;stroke-width:0.5;" x="648.0" xlink:href="#mcb0005524f" y="180.555285143"/>
      </g>
     </g>
    </g>
    <g id="ytick_6">
     <g id="line2d_33">
      <g>
       <use style="stroke:#000000;stroke-width:0.5;" x="394.363636364" xlink:href="#m728421d6d4" y="140.288824942"/>
      </g>
     </g>
     <g id="line2d_34">
      <g>
       <use style="stroke:#000000;stroke-width:0.5;" x="648.0" xlink:href="#mcb0005524f" y="140.288824942"/>
      </g>
     </g>
    </g>
    <g id="ytick_7">
     <g id="line2d_35">
      <g>
       <use style="stroke:#000000;stroke-width:0.5;" x="394.363636364" xlink:href="#m728421d6d4" y="100.02236474"/>
      </g>
     </g>
     <g id="line2d_36">
      <g>
       <use style="stroke:#000000;stroke-width:0.5;" x="648.0" xlink:href="#mcb0005524f" y="100.02236474"/>
      </g>
     </g>
    </g>
    <g id="ytick_8">
     <g id="line2d_37">
      <g>
       <use style="stroke:#000000;stroke-width:0.5;" x="394.363636364" xlink:href="#m728421d6d4" y="59.7559045386"/>
      </g>
     </g>
     <g id="line2d_38">
      <g>
       <use style="stroke:#000000;stroke-width:0.5;" x="648.0" xlink:href="#mcb0005524f" y="59.7559045386"/>
      </g>
     </g>
    </g>
   </g>
  </g>
  <g id="axes_3">
   <g id="patch_12">
    <path d="
M90 388.8
L343.636 388.8
L343.636 231.709
L90 231.709
z
" style="fill:#ffffff;"/>
   </g>
   <g id="line2d_39">
    <path clip-path="url(#p6f5d7ba458)" d="
M99.3939 366.38
L177.677 323.429
L334.242 237.527" style="fill:none;stroke:#000000;stroke-dasharray:6.000000,6.000000;stroke-dashoffset:0.0;stroke-width:5.0;"/>
   </g>
   <g id="line2d_40">
    <path clip-path="url(#p6f5d7ba458)" d="
M99.3939 382.982
L177.677 356.278
L334.242 309.346" style="fill:none;stroke:#28307d;stroke-linecap:square;stroke-width:5.0;"/>
    <g clip-path="url(#p6f5d7ba458)">
     <use style="fill:#28307d;stroke:#000000;stroke-linejoin:bevel;stroke-width:0.5;" x="99.3939393939" xlink:href="#mc0cffe6e67" y="382.981818182"/>
     <use style="fill:#28307d;stroke:#000000;stroke-linejoin:bevel;stroke-width:0.5;" x="177.676767677" xlink:href="#mc0cffe6e67" y="356.278228835"/>
     <use style="fill:#28307d;stroke:#000000;stroke-linejoin:bevel;stroke-width:0.5;" x="334.242424242" xlink:href="#mc0cffe6e67" y="309.345707383"/>
    </g>
   </g>
   <g id="line2d_41">
    <path clip-path="url(#p6f5d7ba458)" d="
M99.3939 369.284
L177.677 336.598
L334.242 286.303" style="fill:none;stroke:#d37647;stroke-linecap:square;stroke-width:5.0;"/>
    <g clip-path="url(#p6f5d7ba458)">
     <use style="fill:#d37647;stroke:#000000;stroke-linejoin:miter;stroke-width:0.5;" x="99.3939393939" xlink:href="#m32daa9cacd" y="369.283635788"/>
     <use style="fill:#d37647;stroke:#000000;stroke-linejoin:miter;stroke-width:0.5;" x="177.676767677" xlink:href="#m32daa9cacd" y="336.59752465"/>
     <use style="fill:#d37647;stroke:#000000;stroke-linejoin:miter;stroke-width:0.5;" x="334.242424242" xlink:href="#m32daa9cacd" y="286.302942811"/>
    </g>
   </g>
   <g id="line2d_42">
    <path clip-path="url(#p6f5d7ba458)" d="
M99.3939 367.568
L177.677 328.121
L334.242 275.386" style="fill:none;stroke:#2f8c6e;stroke-linecap:square;stroke-width:5.0;"/>
    <g clip-path="url(#p6f5d7ba458)">
     <use style="fill:#2f8c6e;stroke:#000000;stroke-width:0.5;" x="99.3939393939" xlink:href="#md94c415993" y="367.567526017"/>
     <use style="fill:#2f8c6e;stroke:#000000;stroke-width:0.5;" x="177.676767677" xlink:href="#md94c415993" y="328.121272056"/>
     <use style="fill:#2f8c6e;stroke:#000000;stroke-width:0.5;" x="334.242424242" xlink:href="#md94c415993" y="275.386089906"/>
    </g>
   </g>
   <g id="line2d_43">
    <path clip-path="url(#p6f5d7ba458)" d="
M334.242 263.572" style="fill:none;stroke:#d3ad47;stroke-linecap:square;stroke-width:5.0;"/>
    <g clip-path="url(#p6f5d7ba458)">
     <use style="fill:#d3ad47;stroke:#000000;stroke-linejoin:miter;stroke-width:0.5;" x="334.242424242" xlink:href="#md63075e83c" y="263.572403098"/>
    </g>
   </g>
   <g id="patch_13">
    <path d="
M90 231.709
L343.636 231.709" style="fill:none;stroke:#000000;stroke-linecap:square;stroke-linejoin:miter;"/>
   </g>
   <g id="patch_14">
    <path d="
M343.636 388.8
L343.636 231.709" style="fill:none;stroke:#000000;stroke-linecap:square;stroke-linejoin:miter;"/>
   </g>
   <g id="patch_15">
    <path d="
M90 388.8
L343.636 388.8" style="fill:none;stroke:#000000;stroke-linecap:square;stroke-linejoin:miter;"/>
   </g>
   <g id="patch_16">
    <path d="
M90 388.8
L90 231.709" style="fill:none;stroke:#000000;stroke-linecap:square;stroke-linejoin:miter;"/>
   </g>
   <g id="matplotlib.axis_5">
    <g id="xtick_7">
     <g id="line2d_44">
      <g>
       <use style="stroke:#000000;stroke-width:0.5;" x="99.3939393939" xlink:href="#m93b0483c22" y="388.8"/>
      </g>
     </g>
     <g id="line2d_45">
      <g>
       <use style="stroke:#000000;stroke-width:0.5;" x="99.3939393939" xlink:href="#m741efc42ff" y="231.709090909"/>
      </g>
     </g>
     <g id="text_5">
      <text style="font-family:DejaVu Sans;font-size:28.0px;font-style:normal;text-anchor:middle;" transform="rotate(-0.000000, 99.393939, 414.075625)" x="99.3939393939" y="414.075625">16</text>
     </g>
    </g>
    <g id="xtick_8">
     <g id="line2d_46">
      <g>
       <use style="stroke:#000000;stroke-width:0.5;" x="177.676767677" xlink:href="#m93b0483c22" y="388.8"/>
      </g>
     </g>
     <g id="line2d_47">
      <g>
       <use style="stroke:#000000;stroke-width:0.5;" x="177.676767677" xlink:href="#m741efc42ff" y="231.709090909"/>
      </g>
     </g>
     <g id="text_6">
      <text style="font-family:DejaVu Sans;font-size:28.0px;font-style:normal;text-anchor:middle;" transform="rotate(-0.000000, 177.676768, 414.075625)" x="177.676767677" y="414.075625">32</text>
     </g>
    </g>
    <g id="xtick_9">
     <g id="line2d_48">
      <g>
       <use style="stroke:#000000;stroke-width:0.5;" x="334.242424242" xlink:href="#m93b0483c22" y="388.8"/>
      </g>
     </g>
     <g id="line2d_49">
      <g>
       <use style="stroke:#000000;stroke-width:0.5;" x="334.242424242" xlink:href="#m741efc42ff" y="231.709090909"/>
      </g>
     </g>
     <g id="text_7">
      <text style="font-family:DejaVu Sans;font-size:28.0px;font-style:normal;text-anchor:middle;" transform="rotate(-0.000000, 334.242424, 414.075625)" x="334.242424242" y="414.075625">64</text>
     </g>
    </g>
   </g>
   <g id="matplotlib.axis_6">
    <g id="ytick_9">
     <g id="line2d_50">
      <g>
       <use style="stroke:#000000;stroke-width:0.5;" x="90.0" xlink:href="#m728421d6d4" y="369.064376052"/>
      </g>
     </g>
     <g id="line2d_51">
      <g>
       <use style="stroke:#000000;stroke-width:0.5;" x="343.636363636" xlink:href="#mcb0005524f" y="369.064376052"/>
      </g>
     </g>
     <g id="text_8">
      <text style="font-family:DejaVu Sans;font-size:28.0px;font-style:normal;text-anchor:end;" transform="rotate(-0.000000, 86.000000, 376.790626)" x="86.0" y="376.790626052">15</text>
     </g>
    </g>
    <g id="ytick_10">
     <g id="line2d_52">
      <g>
       <use style="stroke:#000000;stroke-width:0.5;" x="90.0" xlink:href="#m728421d6d4" y="328.797915851"/>
      </g>
     </g>
     <g id="line2d_53">
      <g>
       <use style="stroke:#000000;stroke-width:0.5;" x="343.636363636" xlink:href="#mcb0005524f" y="328.797915851"/>
      </g>
     </g>
     <g id="text_9">
      <text style="font-family:DejaVu Sans;font-size:28.0px;font-style:normal;text-anchor:end;" transform="rotate(-0.000000, 86.000000, 336.524166)" x="86.0" y="336.524165851">30</text>
     </g>
    </g>
    <g id="ytick_11">
     <g id="line2d_54">
      <g>
       <use style="stroke:#000000;stroke-width:0.5;" x="90.0" xlink:href="#m728421d6d4" y="288.531455649"/>
      </g>
     </g>
     <g id="line2d_55">
      <g>
       <use style="stroke:#000000;stroke-width:0.5;" x="343.636363636" xlink:href="#mcb0005524f" y="288.531455649"/>
      </g>
     </g>
     <g id="text_10">
      <text style="font-family:DejaVu Sans;font-size:28.0px;font-style:normal;text-anchor:end;" transform="rotate(-0.000000, 86.000000, 296.257706)" x="86.0" y="296.257705649">45</text>
     </g>
    </g>
    <g id="ytick_12">
     <g id="line2d_56">
      <g>
       <use style="stroke:#000000;stroke-width:0.5;" x="90.0" xlink:href="#m728421d6d4" y="248.264995448"/>
      </g>
     </g>
     <g id="line2d_57">
      <g>
       <use style="stroke:#000000;stroke-width:0.5;" x="343.636363636" xlink:href="#mcb0005524f" y="248.264995448"/>
      </g>
     </g>
     <g id="text_11">
      <text style="font-family:DejaVu Sans;font-size:28.0px;font-style:normal;text-anchor:end;" transform="rotate(-0.000000, 86.000000, 255.991245)" x="86.0" y="255.991245448">60</text>
     </g>
    </g>
   </g>
  </g>
  <g id="axes_4">
   <g id="patch_17">
    <path d="
M394.364 388.8
L648 388.8
L648 231.709
L394.364 231.709
z
" style="fill:#ffffff;"/>
   </g>
   <g id="line2d_58">
    <path clip-path="url(#p990a80eda8)" d="
M403.758 366.38
L482.04 323.429
L638.606 237.527" style="fill:none;stroke:#000000;stroke-dasharray:6.000000,6.000000;stroke-dashoffset:0.0;stroke-width:5.0;"/>
   </g>
   <g id="line2d_59">
    <path clip-path="url(#p990a80eda8)" d="
M403.758 382.982
L482.04 356.278
L638.606 309.346" style="fill:none;stroke:#28307d;stroke-linecap:square;stroke-width:5.0;"/>
    <g clip-path="url(#p990a80eda8)">
     <use style="fill:#28307d;stroke:#000000;stroke-linejoin:bevel;stroke-width:0.5;" x="403.757575758" xlink:href="#mc0cffe6e67" y="382.981818182"/>
     <use style="fill:#28307d;stroke:#000000;stroke-linejoin:bevel;stroke-width:0.5;" x="482.04040404" xlink:href="#mc0cffe6e67" y="356.278228835"/>
     <use style="fill:#28307d;stroke:#000000;stroke-linejoin:bevel;stroke-width:0.5;" x="638.606060606" xlink:href="#mc0cffe6e67" y="309.345707383"/>
    </g>
   </g>
   <g id="line2d_60">
    <path clip-path="url(#p990a80eda8)" d="
M403.758 370.489
L482.04 339.629
L638.606 287.995" style="fill:none;stroke:#d37647;stroke-linecap:square;stroke-width:5.0;"/>
    <g clip-path="url(#p990a80eda8)">
     <use style="fill:#d37647;stroke:#000000;stroke-linejoin:miter;stroke-width:0.5;" x="403.757575758" xlink:href="#m32daa9cacd" y="370.488569273"/>
     <use style="fill:#d37647;stroke:#000000;stroke-linejoin:miter;stroke-width:0.5;" x="482.04040404" xlink:href="#m32daa9cacd" y="339.629168018"/>
     <use style="fill:#d37647;stroke:#000000;stroke-linejoin:miter;stroke-width:0.5;" x="638.606060606" xlink:href="#m32daa9cacd" y="287.995234012"/>
    </g>
   </g>
   <g id="line2d_61">
    <path clip-path="url(#p990a80eda8)" d="
M403.758 367.575
L482.04 329.566
L638.606 285.446" style="fill:none;stroke:#2f8c6e;stroke-linecap:square;stroke-width:5.0;"/>
    <g clip-path="url(#p990a80eda8)">
     <use style="fill:#2f8c6e;stroke:#000000;stroke-width:0.5;" x="403.757575758" xlink:href="#md94c415993" y="367.574716885"/>
     <use style="fill:#2f8c6e;stroke:#000000;stroke-width:0.5;" x="482.04040404" xlink:href="#md94c415993" y="329.566096884"/>
     <use style="fill:#2f8c6e;stroke:#000000;stroke-width:0.5;" x="638.606060606" xlink:href="#md94c415993" y="285.445533968"/>
    </g>
   </g>
   <g id="line2d_62">
    <path clip-path="url(#p990a80eda8)" d="
M638.606 279.264" style="fill:none;stroke:#d3ad47;stroke-linecap:square;stroke-width:5.0;"/>
    <g clip-path="url(#p990a80eda8)">
     <use style="fill:#d3ad47;stroke:#000000;stroke-linejoin:miter;stroke-width:0.5;" x="638.606060606" xlink:href="#md63075e83c" y="279.263538577"/>
    </g>
   </g>
   <g id="patch_18">
    <path d="
M394.364 231.709
L648 231.709" style="fill:none;stroke:#000000;stroke-linecap:square;stroke-linejoin:miter;"/>
   </g>
   <g id="patch_19">
    <path d="
M648 388.8
L648 231.709" style="fill:none;stroke:#000000;stroke-linecap:square;stroke-linejoin:miter;"/>
   </g>
   <g id="patch_20">
    <path d="
M394.364 388.8
L648 388.8" style="fill:none;stroke:#000000;stroke-linecap:square;stroke-linejoin:miter;"/>
   </g>
   <g id="patch_21">
    <path d="
M394.364 388.8
L394.364 231.709" style="fill:none;stroke:#000000;stroke-linecap:square;stroke-linejoin:miter;"/>
   </g>
   <g id="matplotlib.axis_7">
    <g id="xtick_10">
     <g id="line2d_63">
      <g>
       <use style="stroke:#000000;stroke-width:0.5;" x="403.757575758" xlink:href="#m93b0483c22" y="388.8"/>
      </g>
     </g>
     <g id="line2d_64">
      <g>
       <use style="stroke:#000000;stroke-width:0.5;" x="403.757575758" xlink:href="#m741efc42ff" y="231.709090909"/>
      </g>
     </g>
     <g id="text_12">
      <text style="font-family:DejaVu Sans;font-size:28.0px;font-style:normal;text-anchor:middle;" transform="rotate(-0.000000, 403.757576, 414.075625)" x="403.757575758" y="414.075625">16</text>
     </g>
    </g>
    <g id="xtick_11">
     <g id="line2d_65">
      <g>
       <use style="stroke:#000000;stroke-width:0.5;" x="482.04040404" xlink:href="#m93b0483c22" y="388.8"/>
      </g>
     </g>
     <g id="line2d_66">
      <g>
       <use style="stroke:#000000;stroke-width:0.5;" x="482.04040404" xlink:href="#m741efc42ff" y="231.709090909"/>
      </g>
     </g>
     <g id="text_13">
      <text style="font-family:DejaVu Sans;font-size:28.0px;font-style:normal;text-anchor:middle;" transform="rotate(-0.000000, 482.040404, 414.075625)" x="482.04040404" y="414.075625">32</text>
     </g>
    </g>
    <g id="xtick_12">
     <g id="line2d_67">
      <g>
       <use style="stroke:#000000;stroke-width:0.5;" x="638.606060606" xlink:href="#m93b0483c22" y="388.8"/>
      </g>
     </g>
     <g id="line2d_68">
      <g>
       <use style="stroke:#000000;stroke-width:0.5;" x="638.606060606" xlink:href="#m741efc42ff" y="231.709090909"/>
      </g>
     </g>
     <g id="text_14">
      <text style="font-family:DejaVu Sans;font-size:28.0px;font-style:normal;text-anchor:middle;" transform="rotate(-0.000000, 638.606061, 414.075625)" x="638.606060606" y="414.075625">64</text>
     </g>
    </g>
   </g>
   <g id="matplotlib.axis_8">
    <g id="ytick_13">
     <g id="line2d_69">
      <g>
       <use style="stroke:#000000;stroke-width:0.5;" x="394.363636364" xlink:href="#m728421d6d4" y="369.064376052"/>
      </g>
     </g>
     <g id="line2d_70">
      <g>
       <use style="stroke:#000000;stroke-width:0.5;" x="648.0" xlink:href="#mcb0005524f" y="369.064376052"/>
      </g>
     </g>
    </g>
    <g id="ytick_14">
     <g id="line2d_71">
      <g>
       <use style="stroke:#000000;stroke-width:0.5;" x="394.363636364" xlink:href="#m728421d6d4" y="328.797915851"/>
      </g>
     </g>
     <g id="line2d_72">
      <g>
       <use style="stroke:#000000;stroke-width:0.5;" x="648.0" xlink:href="#mcb0005524f" y="328.797915851"/>
      </g>
     </g>
    </g>
    <g id="ytick_15">
     <g id="line2d_73">
      <g>
       <use style="stroke:#000000;stroke-width:0.5;" x="394.363636364" xlink:href="#m728421d6d4" y="288.531455649"/>
      </g>
     </g>
     <g id="line2d_74">
      <g>
       <use style="stroke:#000000;stroke-width:0.5;" x="648.0" xlink:href="#mcb0005524f" y="288.531455649"/>
      </g>
     </g>
    </g>
    <g id="ytick_16">
     <g id="line2d_75">
      <g>
       <use style="stroke:#000000;stroke-width:0.5;" x="394.363636364" xlink:href="#m728421d6d4" y="248.264995448"/>
      </g>
     </g>
     <g id="line2d_76">
      <g>
       <use style="stroke:#000000;stroke-width:0.5;" x="648.0" xlink:href="#mcb0005524f" y="248.264995448"/>
      </g>
     </g>
    </g>
   </g>
   <g id="legend_1">
    <g id="patch_22">
     <path d="
M-175.757 351.806
L624.48 351.806
Q631.2 351.806 631.2 345.086
L631.2 255.229
Q631.2 248.509 624.48 248.509
L-175.757 248.509
Q-182.477 248.509 -182.477 255.229
L-182.477 345.086
Q-182.477 351.806 -175.757 351.806
z
" style="fill:#ffffff;opacity:0.5;stroke:#000000;stroke-linejoin:miter;"/>
    </g>
    <g id="text_15">
     <text style="font-family:DejaVu Sans;font-size:28.0px;font-style:normal;text-anchor:start;" transform="rotate(-0.000000, 197.088000, 283.224716)" x="197.088" y="283.224715909">Test</text>
    </g>
    <g id="line2d_77">
     <path d="
M-158.957 319.619" style="fill:none;stroke:#000000;stroke-dasharray:6.000000,6.000000;stroke-dashoffset:0.0;stroke-width:5.0;"/>
    </g>
    <g id="line2d_78"/>
    <g id="text_16">
     <text style="font-family:DejaVu Sans;font-size:33.6px;font-style:normal;text-anchor:start;" transform="rotate(-0.000000, -74.956500, 331.378591)" x="-74.9565" y="331.378590909">NoLB</text>
    </g>
    <g id="line2d_79">
     <path d="
M84.1185 319.619
L131.158 319.619" style="fill:none;stroke:#28307d;stroke-linecap:square;stroke-width:5.0;"/>
    </g>
    <g id="line2d_80">
     <g>
      <use style="fill:#28307d;stroke:#000000;stroke-linejoin:bevel;stroke-width:0.5;" x="84.1185" xlink:href="#mc0cffe6e67" y="319.618590909"/>
      <use style="fill:#28307d;stroke:#000000;stroke-linejoin:bevel;stroke-width:0.5;" x="131.1585" xlink:href="#mc0cffe6e67" y="319.618590909"/>
     </g>
    </g>
    <g id="text_17">
     <text style="font-family:DejaVu Sans;font-size:33.6px;font-style:normal;text-anchor:start;" transform="rotate(-0.000000, 168.118500, 331.378591)" x="168.1185" y="331.378590909">1D</text>
    </g>
    <g id="line2d_81">
     <path d="
M286.973 319.619
L334.013 319.619" style="fill:none;stroke:#d37647;stroke-linecap:square;stroke-width:5.0;"/>
    </g>
    <g id="line2d_82">
     <g>
      <use style="fill:#d37647;stroke:#000000;stroke-linejoin:miter;stroke-width:0.5;" x="286.97325" xlink:href="#m32daa9cacd" y="319.618590909"/>
      <use style="fill:#d37647;stroke:#000000;stroke-linejoin:miter;stroke-width:0.5;" x="334.01325" xlink:href="#m32daa9cacd" y="319.618590909"/>
     </g>
    </g>
    <g id="text_18">
     <text style="font-family:DejaVu Sans;font-size:33.6px;font-style:normal;text-anchor:start;" transform="rotate(-0.000000, 370.973250, 331.378591)" x="370.97325" y="331.378590909">2D</text>
    </g>
    <g id="line2d_83">
     <path d="
M491.056 319.619
L538.096 319.619" style="fill:none;stroke:#2f8c6e;stroke-linecap:square;stroke-width:5.0;"/>
    </g>
    <g id="line2d_84">
     <g>
      <use style="fill:#2f8c6e;stroke:#000000;stroke-width:0.5;" x="491.0565" xlink:href="#md94c415993" y="319.618590909"/>
      <use style="fill:#2f8c6e;stroke:#000000;stroke-width:0.5;" x="538.0965" xlink:href="#md94c415993" y="319.618590909"/>
     </g>
    </g>
    <g id="text_19">
     <text style="font-family:DejaVu Sans;font-size:33.6px;font-style:normal;text-anchor:start;" transform="rotate(-0.000000, 575.056500, 331.378591)" x="575.0565" y="331.378590909">3D</text>
    </g>
   </g>
  </g>
 </g>
 <defs>
  <clipPath id="p8bfee07115">
   <rect height="157.090909091" width="253.636363636" x="90.0" y="43.2"/>
  </clipPath>
  <clipPath id="p94e1a50243">
   <rect height="157.090909091" width="253.636363636" x="394.363636364" y="43.2"/>
  </clipPath>
  <clipPath id="p990a80eda8">
   <rect height="157.090909091" width="253.636363636" x="394.363636364" y="231.709090909"/>
  </clipPath>
  <clipPath id="p6f5d7ba458">
   <rect height="157.090909091" width="253.636363636" x="90.0" y="231.709090909"/>
  </clipPath>
 </defs>
</svg>
